<svg width="17px" height="18px" viewBox="0 0 17 18" version="1.1" xmlns="http://www.w3.org/2000/svg" xmlns:xlink="http://www.w3.org/1999/xlink">
    <!-- Generator: Sketch 45 (43475) - http://www.bohemiancoding.com/sketch -->
    <desc>Created with Sketch.</desc>
    <defs></defs>
    <g id="Page-1" stroke="none" stroke-width="1" fill="none" fill-rule="evenodd" stroke-linecap="round" stroke-linejoin="round">
        <g id="Skills" transform="translate(-282.000000, -23.000000)" stroke="#FFFFFF" stroke-width="2">
            <g id="Page-1" transform="translate(282.950798, 24.167554)">
                <path d="M3.91712889,2.47291631 C1.74702086,3.63618949 0.270871054,5.92646812 0.270871054,8.56101932 C0.270871054,12.3740004 3.36120448,15.4643338 7.17418551,15.4643338 C10.9871665,15.4643338 14.0775,12.3740004 14.0775,8.56101932 C14.0775,5.75920362 12.4081028,3.34767176 10.0101037,2.26559494" id="Stroke-1"></path>
                <path d="M7.04920175,6.46187692 L7.04920175,0.270383876" id="Stroke-3"></path>
            </g>
        </g>
    </g>
</svg>